Take-home Exercise 2 – ISSS608-VAA
…
names(df_TIS) <- TIS_sheets  # Assign sheet names

Summary of Data

df_MTC$T1  # Access data from 'T1' 

# A tibble: 177 × 276
   `Data Series`     `2024`  `2023` `2022` `2021`  `2020`  `2019`  `2018` `2017`
   <chr>              <dbl>   <dbl>  <dbl>  <dbl>   <dbl>   <dbl>   <dbl>  <dbl>
 1 Total All Marke… 6.11e+5 5.67e+5 6.55e5 5.46e5 4.53e+5 4.90e+5 5.00e+5 4.52e5
 2 America          9.53e+4 8.52e+4 8.94e4 6.64e4 5.90e+4 6.97e+4 6.66e+4 5.80e4
 3 Antigua And Bar… 2   e-1 0       0      0      0       1   e-1 2   e+0 0     
 4 Argentina        3.27e+2 1.72e+2 1.27e2 8.43e1 1.26e+2 9.07e+1 8.68e+1 7.74e1
 5 Bahamas          2.79e+1 3   e-1 1.47e1 2.09e2 2.73e+2 1.43e+1 5.64e+1 3.9 e0
 6 Bermuda          1.1 e+0 0       0      0      1   e-1 8   e-1 2   e-1 0     
 7 Brazil           9.32e+3 7.81e+3 1.04e4 5.48e3 3.66e+3 2.01e+3 2.10e+3 2.00e3
 8 Canada           3.75e+3 2.76e+3 3.08e3 2.00e3 2.44e+3 2.70e+3 2.08e+3 1.86e3
 9 Chile            1.21e+2 1.10e+2 2.66e2 1.31e2 7.1 e+1 8.25e+1 1.22e+2 8.77e1
10 Colombia         1.35e+2 9.04e+1 3.11e2 1.98e2 1.84e+2 2.18e+2 6.18e+2 5.56e2
# ℹ 167 more rows
# ℹ 267 more variables: `2016` <dbl>, `2015` <dbl>, `2025 Jan` <dbl>,
#   `2024 Dec` <dbl>, `2024 Nov` <dbl>, `2024 Oct` <dbl>, `2024 Sep` <dbl>,
#   `2024 Aug` <dbl>, `2024 Jul` <dbl>, `2024 Jun` <dbl>, `2024 May` <dbl>,
#   `2024 Apr` <dbl>, `2024 Mar` <dbl>, `2024 Feb` <dbl>, `2024 Jan` <dbl>,
#   `2023 Dec` <dbl>, `2023 Nov` <dbl>, `2023 Oct` <dbl>, `2023 Sep` <dbl>,
#   `2023 Aug` <dbl>, `2023 Jul` <dbl>, `2023 Jun` <dbl>, `2023 May` <dbl>, …
…
df_countries <- trade_data %>%
  filter(!(`Data Series` %in% continents))  # Exclude continents

print(df_countries)  # Verify country-level data

# A tibble: 169 × 7
   `Data Series`       Imports Exports Re_Exports Total_Exports Trade_Balance
   <chr>                 <dbl>   <dbl>      <dbl>         <dbl>         <dbl>
 1 Antigua And Barbuda     0.2   127.         2.1         130.         129.  
 2 Argentina             327.     67.4      253.          321.          -6.60
 3 Bahamas                27.9   849.        92.8         942.         914.  
 4 Bermuda                 1.1    48.3        0.8          49.1         48   
 5 Brazil               9321.    525.      2022.         2547.       -6774.  
 6 Canada               3746.    511.      1024.         1535.       -2211.  
 7 Chile                 121      72.1      179.          251.         130.  
 8 Colombia              135.     72.7      104.          177.          42   
 9 Costa Rica            686.     66.9       22.4          89.3       -597.  
10 Cuba                   12.5     2          0.1           2.1        -10.4 
# ℹ 159 more rows
# ℹ 1 more variable: Trade_Sign <chr>
…
