Take-home Exercise 1: Ship Performance in the Gulf of Guinea – ISSS608-VAA
…
# Check output
print(summary_data)

# A tibble: 1,874 × 11
   Ship_Type    Route_Type Engine_Type Maintenance_Status Date      
   <chr>        <chr>      <chr>       <chr>              <date>    
 1 Bulk Carrier Coastal    Diesel      Critical           2023-07-23
 2 Bulk Carrier Coastal    Diesel      Critical           2023-08-20
 3 Bulk Carrier Coastal    Diesel      Critical           2023-09-03
 4 Bulk Carrier Coastal    Diesel      Critical           2023-10-15
 5 Bulk Carrier Coastal    Diesel      Critical           2023-10-22
 6 Bulk Carrier Coastal    Diesel      Critical           2023-10-29
 7 Bulk Carrier Coastal    Diesel      Critical           2023-12-31
 8 Bulk Carrier Coastal    Diesel      Critical           2024-02-18
 9 Bulk Carrier Coastal    Diesel      Critical           2024-03-17
10 Bulk Carrier Coastal    Diesel      Critical           2024-03-24
# ℹ 1,864 more rows
# ℹ 6 more variables: Total_Operational_Cost <dbl>, Total_Revenue <dbl>,
#   Profit <dbl>, Profit_Margin_Percentage <dbl>,
#   Average_Load_Percentage <dbl>, Turnaround_Time <dbl>
…
